,temp,humidity,pressure,description,dt,wind_speed,wind_deg,city,date,distance
0,14.82,94,1022,scattered clouds,1696809600,1.54,0,buje,2023-10-09 02:00:00,12
1,14.82,94,1021,broken clouds,1696813200,2.57,120,buje,2023-10-09 03:00:00,12
2,13.82,94,1021,broken clouds,1696816800,2.06,120,buje,2023-10-09 04:00:00,12
3,14.82,94,1022,broken clouds,1696820400,3.6,130,buje,2023-10-09 05:00:00,12
4,14.82,94,1021,overcast clouds,1696824000,2.57,120,buje,2023-10-09 06:00:00,12
5,13.82,100,1021,overcast clouds,1696827600,2.57,130,buje,2023-10-09 07:00:00,12
6,14.82,94,1021,broken clouds,1696831200,3.6,130,buje,2023-10-09 08:00:00,12
7,16.82,88,1022,few clouds,1696834800,3.6,120,buje,2023-10-09 09:00:00,12
8,20.82,73,1022,clear sky,1696838400,1.54,150,buje,2023-10-09 10:00:00,12
9,21.82,73,1022,scattered clouds,1696842000,2.57,150,buje,2023-10-09 11:00:00,12
10,22.82,69,1021,few clouds,1696845600,2.57,200,buje,2023-10-09 12:00:00,12
11,23.82,69,1021,few clouds,1696849200,2.06,240,buje,2023-10-09 13:00:00,12
12,23.82,69,1020,clear sky,1696852800,4.63,230,buje,2023-10-09 14:00:00,12
13,23.82,73,1019,clear sky,1696856400,3.09,210,buje,2023-10-09 15:00:00,12
14,24.82,65,1019,clear sky,1696860000,1.54,230,buje,2023-10-09 16:00:00,12
15,22.82,73,1019,scattered clouds,1696863600,2.06,270,buje,2023-10-09 17:00:00,12
16,21.82,83,1019,broken clouds,1696867200,1.03,0,buje,2023-10-09 18:00:00,12
17,21.82,83,1019,broken clouds,1696870800,2.06,80,buje,2023-10-09 19:00:00,12
18,13.82,82,1023,few clouds,1696723200,2.57,120,buje,2023-10-08 02:00:00,12
19,12.82,82,1023,scattered clouds,1696726800,3.09,130,buje,2023-10-08 03:00:00,12
20,12.82,82,1022,scattered clouds,1696730400,3.6,130,buje,2023-10-08 04:00:00,12
21,12.82,82,1022,scattered clouds,1696734000,3.6,120,buje,2023-10-08 05:00:00,12
22,11.82,94,1022,few clouds,1696737600,3.6,120,buje,2023-10-08 06:00:00,12
23,11.82,94,1022,few clouds,1696741200,3.6,120,buje,2023-10-08 07:00:00,12
24,12.82,88,1022,clear sky,1696744800,3.6,120,buje,2023-10-08 08:00:00,12
25,15.82,82,1023,clear sky,1696748400,4.12,130,buje,2023-10-08 09:00:00,12
26,20.82,64,1022,clear sky,1696752000,3.09,130,buje,2023-10-08 10:00:00,12
27,22.82,57,1022,clear sky,1696755600,1.54,130,buje,2023-10-08 11:00:00,12
28,22.82,60,1022,clear sky,1696759200,2.57,300,buje,2023-10-08 12:00:00,12
29,22.82,60,1022,clear sky,1696762800,2.57,310,buje,2023-10-08 13:00:00,12
30,22.82,64,1021,clear sky,1696766400,3.09,310,buje,2023-10-08 14:00:00,12
31,22.82,69,1021,clear sky,1696770000,2.57,320,buje,2023-10-08 15:00:00,12
32,22.82,69,1021,clear sky,1696773600,2.06,330,buje,2023-10-08 16:00:00,12
33,21.82,73,1021,clear sky,1696777200,2.06,340,buje,2023-10-08 17:00:00,12
34,20.82,78,1021,overcast clouds,1696780800,2.06,360,buje,2023-10-08 18:00:00,12
35,18.82,88,1021,broken clouds,1696784400,0.51,0,buje,2023-10-08 19:00:00,12
36,17.82,88,1021,broken clouds,1696788000,1.54,130,buje,2023-10-08 20:00:00,12
37,16.82,94,1022,overcast clouds,1696791600,2.57,120,buje,2023-10-08 21:00:00,12
38,16.82,88,1022,overcast clouds,1696795200,2.06,120,buje,2023-10-08 22:00:00,12
39,15.82,94,1022,overcast clouds,1696798800,2.06,120,buje,2023-10-08 23:00:00,12
40,14.82,94,1022,overcast clouds,1696802400,2.57,120,buje,2023-10-09 00:00:00,12
41,14.82,94,1022,overcast clouds,1696806000,2.57,120,buje,2023-10-09 01:00:00,12
42,11.82,94,1024,clear sky,1696636800,3.09,120,buje,2023-10-07 02:00:00,12
43,11.82,88,1023,few clouds,1696640400,3.6,120,buje,2023-10-07 03:00:00,12
44,10.82,94,1023,few clouds,1696644000,3.6,120,buje,2023-10-07 04:00:00,12
45,10.82,94,1023,few clouds,1696647600,3.6,120,buje,2023-10-07 05:00:00,12
46,10.82,87,1023,few clouds,1696651200,3.09,120,buje,2023-10-07 06:00:00,12
47,10.82,87,1022,few clouds,1696654800,3.09,120,buje,2023-10-07 07:00:00,12
48,10.82,87,1023,clear sky,1696658400,3.6,120,buje,2023-10-07 08:00:00,12
49,13.82,77,1023,clear sky,1696662000,3.09,120,buje,2023-10-07 09:00:00,12
50,17.82,63,1024,clear sky,1696665600,2.06,120,buje,2023-10-07 10:00:00,12
51,21.82,53,1024,clear sky,1696669200,0.51,0,buje,2023-10-07 11:00:00,12
52,20.82,56,1024,clear sky,1696672800,2.06,300,buje,2023-10-07 12:00:00,12
53,21.82,60,1023,clear sky,1696676400,3.6,300,buje,2023-10-07 13:00:00,12
54,22.82,41,1023,clear sky,1696680000,2.06,310,buje,2023-10-07 14:00:00,12
55,22.82,46,1022,clear sky,1696683600,2.57,300,buje,2023-10-07 15:00:00,12
56,22.82,53,1022,clear sky,1696687200,3.09,300,buje,2023-10-07 16:00:00,12
57,22.82,46,1022,clear sky,1696690800,2.06,310,buje,2023-10-07 17:00:00,12
58,20.82,68,1022,clear sky,1696694400,1.03,0,buje,2023-10-07 18:00:00,12
59,15.82,82,1023,clear sky,1696698000,2.57,120,buje,2023-10-07 19:00:00,12
60,14.82,88,1023,clear sky,1696701600,3.09,130,buje,2023-10-07 20:00:00,12
61,17.58,61,1023,overcast clouds,1696705200,1.15,67,buje,2023-10-07 21:00:00,12
62,14.82,82,1023,overcast clouds,1696708800,2.57,120,buje,2023-10-07 22:00:00,12
63,14.82,82,1024,overcast clouds,1696712400,2.57,120,buje,2023-10-07 23:00:00,12
64,14.82,77,1023,overcast clouds,1696716000,2.57,120,buje,2023-10-08 00:00:00,12
65,13.82,82,1023,overcast clouds,1696719600,2.06,130,buje,2023-10-08 01:00:00,12
66,14.82,88,1023,overcast clouds,1696550400,3.09,130,buje,2023-10-06 02:00:00,12
67,13.82,94,1023,overcast clouds,1696554000,2.06,120,buje,2023-10-06 03:00:00,12
68,12.82,94,1023,overcast clouds,1696557600,2.57,120,buje,2023-10-06 04:00:00,12
69,12.82,88,1023,overcast clouds,1696561200,3.09,130,buje,2023-10-06 05:00:00,12
70,12.82,88,1023,broken clouds,1696564800,3.09,130,buje,2023-10-06 06:00:00,12
71,12.82,88,1023,overcast clouds,1696568400,3.6,130,buje,2023-10-06 07:00:00,12
72,12.82,88,1024,clear sky,1696572000,3.6,130,buje,2023-10-06 08:00:00,12
73,14.82,72,1024,clear sky,1696575600,3.09,130,buje,2023-10-06 09:00:00,12
74,19.82,52,1025,clear sky,1696579200,2.06,120,buje,2023-10-06 10:00:00,12
75,20.82,46,1025,clear sky,1696582800,1.03,0,buje,2023-10-06 11:00:00,12
76,21.82,49,1025,clear sky,1696586400,2.06,280,buje,2023-10-06 12:00:00,12
77,23.82,44,1024,clear sky,1696590000,2.06,340,buje,2023-10-06 13:00:00,12
78,23.82,41,1024,clear sky,1696593600,3.6,280,buje,2023-10-06 14:00:00,12
79,24.82,41,1024,clear sky,1696597200,4.12,300,buje,2023-10-06 15:00:00,12
80,23.82,50,1023,clear sky,1696600800,4.12,300,buje,2023-10-06 16:00:00,12
81,22.82,46,1023,clear sky,1696604400,3.09,280,buje,2023-10-06 17:00:00,12
82,21.82,56,1023,clear sky,1696608000,1.03,260,buje,2023-10-06 18:00:00,12
83,18.82,73,1023,clear sky,1696611600,1.54,130,buje,2023-10-06 19:00:00,12
84,15.82,82,1024,clear sky,1696615200,2.57,120,buje,2023-10-06 20:00:00,12
85,14.82,82,1024,few clouds,1696618800,3.6,130,buje,2023-10-06 21:00:00,12
86,13.82,88,1024,few clouds,1696622400,3.6,120,buje,2023-10-06 22:00:00,12
87,12.82,88,1024,clear sky,1696626000,3.09,120,buje,2023-10-06 23:00:00,12
88,12.82,88,1024,clear sky,1696629600,2.57,130,buje,2023-10-07 00:00:00,12
89,11.82,94,1024,few clouds,1696633200,3.09,120,buje,2023-10-07 01:00:00,12
90,13.82,77,1024,overcast clouds,1696464000,0.0,0,buje,2023-10-05 02:00:00,12
91,12.82,77,1023,overcast clouds,1696467600,2.06,120,buje,2023-10-05 03:00:00,12
92,11.82,82,1023,broken clouds,1696471200,3.09,130,buje,2023-10-05 04:00:00,12
93,12.82,72,1023,broken clouds,1696474800,4.12,130,buje,2023-10-05 05:00:00,12
94,10.82,82,1023,scattered clouds,1696478400,3.6,130,buje,2023-10-05 06:00:00,12
95,10.82,76,1023,scattered clouds,1696482000,3.6,130,buje,2023-10-05 07:00:00,12
96,11.82,71,1023,clear sky,1696485600,4.12,120,buje,2023-10-05 08:00:00,12
97,14.82,67,1024,clear sky,1696489200,2.06,120,buje,2023-10-05 09:00:00,12
98,17.82,59,1024,clear sky,1696492800,1.54,130,buje,2023-10-05 10:00:00,12
99,20.82,46,1024,clear sky,1696496400,1.03,270,buje,2023-10-05 11:00:00,12
100,21.82,53,1024,clear sky,1696500000,1.03,0,buje,2023-10-05 12:00:00,12
101,22.82,50,1023,clear sky,1696503600,1.54,290,buje,2023-10-05 13:00:00,12
102,22.82,50,1023,clear sky,1696507200,2.06,300,buje,2023-10-05 14:00:00,12
103,21.82,53,1023,clear sky,1696510800,2.06,300,buje,2023-10-05 15:00:00,12
104,21.82,56,1022,clear sky,1696514400,2.06,310,buje,2023-10-05 16:00:00,12
105,21.82,53,1022,clear sky,1696518000,1.54,330,buje,2023-10-05 17:00:00,12
106,21.82,56,1022,clear sky,1696521600,0.0,0,buje,2023-10-05 18:00:00,12
107,17.82,82,1023,clear sky,1696525200,1.03,120,buje,2023-10-05 19:00:00,12
108,15.82,88,1023,clear sky,1696528800,2.06,120,buje,2023-10-05 20:00:00,12
109,14.82,88,1023,overcast clouds,1696532400,3.09,130,buje,2023-10-05 21:00:00,12
110,14.82,88,1023,overcast clouds,1696536000,3.6,130,buje,2023-10-05 22:00:00,12
111,14.82,88,1023,overcast clouds,1696539600,3.6,120,buje,2023-10-05 23:00:00,12
112,14.82,88,1023,overcast clouds,1696543200,2.57,130,buje,2023-10-06 00:00:00,12
113,13.82,94,1023,overcast clouds,1696546800,1.54,130,buje,2023-10-06 01:00:00,12
