,temp,humidity,pressure,description,dt,wind_speed,wind_deg,city,date,distance
0,17.16,71,1023,broken clouds,1696809600,2.52,54,labin,2023-10-09 02:00:00,4
1,17.71,74,1022,broken clouds,1696813200,2.7,54,labin,2023-10-09 03:00:00,4
2,17.16,74,1022,broken clouds,1696816800,2.48,47,labin,2023-10-09 04:00:00,4
3,16.6,73,1022,broken clouds,1696820400,2.85,42,labin,2023-10-09 05:00:00,4
4,16.6,72,1022,broken clouds,1696824000,2.55,39,labin,2023-10-09 06:00:00,4
5,16.05,71,1022,overcast clouds,1696827600,2.29,43,labin,2023-10-09 07:00:00,4
6,16.6,69,1022,scattered clouds,1696831200,2.14,41,labin,2023-10-09 08:00:00,4
7,17.71,63,1023,scattered clouds,1696834800,1.24,46,labin,2023-10-09 09:00:00,4
8,20.49,57,1022,broken clouds,1696838400,0.94,74,labin,2023-10-09 10:00:00,4
9,21.93,53,1022,broken clouds,1696842000,0.92,114,labin,2023-10-09 11:00:00,4
10,22.16,51,1022,broken clouds,1696845600,1.23,139,labin,2023-10-09 12:00:00,4
11,21.93,51,1022,broken clouds,1696849200,1.54,146,labin,2023-10-09 13:00:00,4
12,22.93,53,1021,broken clouds,1696852800,1.92,149,labin,2023-10-09 14:00:00,4
13,22.93,56,1021,scattered clouds,1696856400,1.84,149,labin,2023-10-09 15:00:00,4
14,21.93,60,1020,scattered clouds,1696860000,1.98,145,labin,2023-10-09 16:00:00,4
15,22.16,66,1019,scattered clouds,1696863600,1.77,125,labin,2023-10-09 17:00:00,4
16,19.94,73,1019,scattered clouds,1696867200,1.63,78,labin,2023-10-09 18:00:00,4
17,18.82,77,1020,scattered clouds,1696870800,1.95,56,labin,2023-10-09 19:00:00,4
18,17.71,60,1023,broken clouds,1696723200,2.11,331,labin,2023-10-08 02:00:00,4
19,17.71,62,1022,broken clouds,1696726800,2.33,331,labin,2023-10-08 03:00:00,4
20,17.16,64,1022,broken clouds,1696730400,2.32,335,labin,2023-10-08 04:00:00,4
21,17.16,65,1022,broken clouds,1696734000,2.55,340,labin,2023-10-08 05:00:00,4
22,17.16,66,1022,broken clouds,1696737600,2.29,334,labin,2023-10-08 06:00:00,4
23,16.6,67,1022,broken clouds,1696741200,2.67,334,labin,2023-10-08 07:00:00,4
24,17.16,67,1022,overcast clouds,1696744800,2.63,339,labin,2023-10-08 08:00:00,4
25,17.71,61,1022,overcast clouds,1696748400,2.09,336,labin,2023-10-08 09:00:00,4
26,19.94,56,1022,overcast clouds,1696752000,1.86,309,labin,2023-10-08 10:00:00,4
27,22.71,55,1022,overcast clouds,1696755600,1.98,298,labin,2023-10-08 11:00:00,4
28,23.27,53,1022,overcast clouds,1696759200,1.8,292,labin,2023-10-08 12:00:00,4
29,23.93,51,1022,overcast clouds,1696762800,1.3,294,labin,2023-10-08 13:00:00,4
30,24.93,52,1022,overcast clouds,1696766400,0.61,258,labin,2023-10-08 14:00:00,4
31,23.93,53,1021,overcast clouds,1696770000,0.58,234,labin,2023-10-08 15:00:00,4
32,22.93,55,1021,overcast clouds,1696773600,0.53,218,labin,2023-10-08 16:00:00,4
33,22.16,61,1021,overcast clouds,1696777200,0.43,162,labin,2023-10-08 17:00:00,4
34,20.49,69,1021,overcast clouds,1696780800,0.25,80,labin,2023-10-08 18:00:00,4
35,20.49,72,1022,overcast clouds,1696784400,1.68,17,labin,2023-10-08 19:00:00,4
36,21.05,74,1022,scattered clouds,1696788000,1.47,1,labin,2023-10-08 20:00:00,4
37,19.38,73,1022,broken clouds,1696791600,2.08,356,labin,2023-10-08 21:00:00,4
38,18.82,71,1022,broken clouds,1696795200,1.77,359,labin,2023-10-08 22:00:00,4
39,19.38,70,1022,broken clouds,1696798800,2.09,6,labin,2023-10-08 23:00:00,4
40,18.82,70,1022,broken clouds,1696802400,2.48,28,labin,2023-10-09 00:00:00,4
41,17.71,72,1022,broken clouds,1696806000,2.6,46,labin,2023-10-09 01:00:00,4
42,16.05,64,1024,few clouds,1696636800,2.46,359,labin,2023-10-07 02:00:00,4
43,16.05,64,1023,few clouds,1696640400,2.3,354,labin,2023-10-07 03:00:00,4
44,14.94,63,1023,few clouds,1696644000,2.37,358,labin,2023-10-07 04:00:00,4
45,15.49,62,1023,few clouds,1696647600,2.24,356,labin,2023-10-07 05:00:00,4
46,14.94,60,1023,few clouds,1696651200,2.25,358,labin,2023-10-07 06:00:00,4
47,14.94,58,1023,few clouds,1696654800,2.05,355,labin,2023-10-07 07:00:00,4
48,15.49,55,1023,few clouds,1696658400,2.0,356,labin,2023-10-07 08:00:00,4
49,17.71,51,1023,scattered clouds,1696662000,1.58,354,labin,2023-10-07 09:00:00,4
50,18.82,46,1023,scattered clouds,1696665600,1.05,353,labin,2023-10-07 10:00:00,4
51,21.6,44,1023,scattered clouds,1696669200,0.85,325,labin,2023-10-07 11:00:00,4
52,23.93,42,1023,scattered clouds,1696672800,0.6,288,labin,2023-10-07 12:00:00,4
53,24.93,43,1023,scattered clouds,1696676400,0.87,220,labin,2023-10-07 13:00:00,4
54,23.93,44,1022,clear sky,1696680000,1.35,211,labin,2023-10-07 14:00:00,4
55,23.93,46,1022,clear sky,1696683600,1.32,224,labin,2023-10-07 15:00:00,4
56,23.93,49,1022,clear sky,1696687200,0.78,248,labin,2023-10-07 16:00:00,4
57,22.71,54,1022,clear sky,1696690800,0.51,306,labin,2023-10-07 17:00:00,4
58,20.49,62,1022,clear sky,1696694400,0.65,349,labin,2023-10-07 18:00:00,4
59,18.27,67,1023,clear sky,1696698000,1.55,355,labin,2023-10-07 19:00:00,4
60,18.27,66,1023,clear sky,1696701600,1.81,360,labin,2023-10-07 20:00:00,4
61,18.27,66,1023,few clouds,1696705200,2.0,353,labin,2023-10-07 21:00:00,4
62,17.71,65,1023,scattered clouds,1696708800,2.13,349,labin,2023-10-07 22:00:00,4
63,18.27,63,1023,scattered clouds,1696712400,2.17,348,labin,2023-10-07 23:00:00,4
64,18.27,61,1023,scattered clouds,1696716000,2.11,350,labin,2023-10-08 00:00:00,4
65,17.71,59,1023,broken clouds,1696719600,1.87,333,labin,2023-10-08 01:00:00,4
66,17.16,70,1023,broken clouds,1696550400,2.28,11,labin,2023-10-06 02:00:00,4
67,17.16,71,1023,overcast clouds,1696554000,2.37,11,labin,2023-10-06 03:00:00,4
68,17.16,70,1023,broken clouds,1696557600,2.24,20,labin,2023-10-06 04:00:00,4
69,17.16,71,1023,broken clouds,1696561200,2.56,13,labin,2023-10-06 05:00:00,4
70,16.6,70,1023,broken clouds,1696564800,2.72,21,labin,2023-10-06 06:00:00,4
71,16.6,70,1023,scattered clouds,1696568400,2.99,30,labin,2023-10-06 07:00:00,4
72,17.16,66,1024,clear sky,1696572000,3.29,42,labin,2023-10-06 08:00:00,4
73,18.27,59,1025,clear sky,1696575600,3.71,51,labin,2023-10-06 09:00:00,4
74,19.94,52,1025,clear sky,1696579200,4.12,55,labin,2023-10-06 10:00:00,4
75,21.6,49,1025,clear sky,1696582800,3.95,54,labin,2023-10-06 11:00:00,4
76,22.16,47,1025,clear sky,1696586400,3.34,48,labin,2023-10-06 12:00:00,4
77,22.71,46,1025,clear sky,1696590000,2.69,49,labin,2023-10-06 13:00:00,4
78,23.82,44,1024,clear sky,1696593600,2.11,49,labin,2023-10-06 14:00:00,4
79,24.38,44,1024,clear sky,1696597200,1.84,48,labin,2023-10-06 15:00:00,4
80,24.38,45,1024,clear sky,1696600800,1.31,53,labin,2023-10-06 16:00:00,4
81,22.16,49,1024,clear sky,1696604400,0.93,66,labin,2023-10-06 17:00:00,4
82,21.05,56,1024,clear sky,1696608000,1.16,57,labin,2023-10-06 18:00:00,4
83,19.38,61,1024,few clouds,1696611600,1.82,44,labin,2023-10-06 19:00:00,4
84,17.16,64,1024,scattered clouds,1696615200,2.42,26,labin,2023-10-06 20:00:00,4
85,17.71,64,1025,scattered clouds,1696618800,2.53,13,labin,2023-10-06 21:00:00,4
86,17.71,65,1025,scattered clouds,1696622400,2.64,8,labin,2023-10-06 22:00:00,4
87,17.16,65,1025,few clouds,1696626000,2.8,5,labin,2023-10-06 23:00:00,4
88,16.05,64,1024,few clouds,1696629600,2.68,6,labin,2023-10-07 00:00:00,4
89,16.05,64,1024,few clouds,1696633200,2.69,7,labin,2023-10-07 01:00:00,4
90,16.6,61,1024,overcast clouds,1696464000,3.79,36,labin,2023-10-05 02:00:00,4
91,15.49,63,1024,overcast clouds,1696467600,3.54,31,labin,2023-10-05 03:00:00,4
92,16.05,64,1023,overcast clouds,1696471200,3.54,25,labin,2023-10-05 04:00:00,4
93,16.05,65,1023,broken clouds,1696474800,3.4,24,labin,2023-10-05 05:00:00,4
94,16.05,64,1023,scattered clouds,1696478400,3.37,21,labin,2023-10-05 06:00:00,4
95,14.94,64,1023,scattered clouds,1696482000,3.31,24,labin,2023-10-05 07:00:00,4
96,16.05,61,1024,broken clouds,1696485600,2.98,22,labin,2023-10-05 08:00:00,4
97,17.71,55,1024,overcast clouds,1696489200,2.65,31,labin,2023-10-05 09:00:00,4
98,19.38,49,1024,broken clouds,1696492800,2.11,28,labin,2023-10-05 10:00:00,4
99,19.94,47,1024,broken clouds,1696496400,1.5,30,labin,2023-10-05 11:00:00,4
100,21.6,45,1024,overcast clouds,1696500000,0.74,56,labin,2023-10-05 12:00:00,4
101,22.16,45,1024,overcast clouds,1696503600,0.32,120,labin,2023-10-05 13:00:00,4
102,22.93,45,1023,broken clouds,1696507200,0.76,160,labin,2023-10-05 14:00:00,4
103,22.93,46,1023,broken clouds,1696510800,1.27,185,labin,2023-10-05 15:00:00,4
104,21.93,48,1023,overcast clouds,1696514400,1.39,212,labin,2023-10-05 16:00:00,4
105,22.16,55,1022,broken clouds,1696518000,1.53,228,labin,2023-10-05 17:00:00,4
106,21.05,64,1022,broken clouds,1696521600,1.28,245,labin,2023-10-05 18:00:00,4
107,18.82,69,1023,broken clouds,1696525200,1.1,303,labin,2023-10-05 19:00:00,4
108,18.82,69,1023,overcast clouds,1696528800,1.28,350,labin,2023-10-05 20:00:00,4
109,18.27,67,1023,overcast clouds,1696532400,1.63,9,labin,2023-10-05 21:00:00,4
110,18.27,66,1023,overcast clouds,1696536000,1.76,17,labin,2023-10-05 22:00:00,4
111,17.71,66,1023,overcast clouds,1696539600,1.76,16,labin,2023-10-05 23:00:00,4
112,17.71,67,1023,overcast clouds,1696543200,2.03,16,labin,2023-10-06 00:00:00,4
113,18.27,69,1023,overcast clouds,1696546800,2.37,10,labin,2023-10-06 01:00:00,4
