,temp,humidity,pressure,description,dt,wind_speed,wind_deg,city,date,distance
0,17.31,88,1022,broken clouds,1696809600,1.54,30,pula,2023-10-09 02:00:00,0
1,16.31,94,1022,broken clouds,1696813200,2.06,80,pula,2023-10-09 03:00:00,0
2,15.31,100,1021,broken clouds,1696816800,3.09,60,pula,2023-10-09 04:00:00,0
3,17.31,100,1021,mist,1696820400,3.09,90,pula,2023-10-09 05:00:00,0
4,17.31,94,1021,fog,1696824000,1.54,50,pula,2023-10-09 06:00:00,0
5,15.31,94,1021,fog,1696827600,1.54,100,pula,2023-10-09 07:00:00,0
6,15.31,94,1022,fog,1696831200,0.0,0,pula,2023-10-09 08:00:00,0
7,20.31,83,1022,clear sky,1696834800,2.57,100,pula,2023-10-09 09:00:00,0
8,22.31,64,1022,clear sky,1696838400,2.57,110,pula,2023-10-09 10:00:00,0
9,23.31,64,1022,scattered clouds,1696842000,2.57,120,pula,2023-10-09 11:00:00,0
10,23.31,64,1022,scattered clouds,1696845600,3.09,110,pula,2023-10-09 12:00:00,0
11,23.31,68,1021,few clouds,1696849200,4.12,110,pula,2023-10-09 13:00:00,0
12,24.31,64,1021,few clouds,1696852800,4.12,100,pula,2023-10-09 14:00:00,0
13,24.31,69,1020,clear sky,1696856400,4.63,110,pula,2023-10-09 15:00:00,0
14,23.31,73,1020,scattered clouds,1696860000,4.12,110,pula,2023-10-09 16:00:00,0
15,22.31,73,1019,scattered clouds,1696863600,3.6,110,pula,2023-10-09 17:00:00,0
16,22.31,78,1019,broken clouds,1696867200,3.09,90,pula,2023-10-09 18:00:00,0
17,19.31,94,1019,scattered clouds,1696870800,3.09,80,pula,2023-10-09 19:00:00,0
18,15.31,77,1023,clear sky,1696723200,0.51,0,pula,2023-10-08 02:00:00,0
19,17.31,67,1022,clear sky,1696726800,0.51,0,pula,2023-10-08 03:00:00,0
20,17.31,67,1022,clear sky,1696730400,1.54,350,pula,2023-10-08 04:00:00,0
21,18.31,72,1022,clear sky,1696734000,3.09,20,pula,2023-10-08 05:00:00,0
22,17.31,82,1022,clear sky,1696737600,3.09,360,pula,2023-10-08 06:00:00,0
23,17.31,82,1022,clear sky,1696741200,3.09,10,pula,2023-10-08 07:00:00,0
24,17.31,77,1022,clear sky,1696744800,2.57,20,pula,2023-10-08 08:00:00,0
25,19.31,72,1023,clear sky,1696748400,2.06,340,pula,2023-10-08 09:00:00,0
26,22.31,60,1023,clear sky,1696752000,2.57,300,pula,2023-10-08 10:00:00,0
27,24.31,57,1023,clear sky,1696755600,4.12,290,pula,2023-10-08 11:00:00,0
28,25.31,57,1023,clear sky,1696759200,5.14,280,pula,2023-10-08 12:00:00,0
29,25.31,57,1022,clear sky,1696762800,5.14,270,pula,2023-10-08 13:00:00,0
30,26.31,53,1022,clear sky,1696766400,5.14,260,pula,2023-10-08 14:00:00,0
31,25.31,61,1021,clear sky,1696770000,4.12,240,pula,2023-10-08 15:00:00,0
32,24.31,69,1021,clear sky,1696773600,3.6,260,pula,2023-10-08 16:00:00,0
33,23.31,68,1021,clear sky,1696777200,3.09,260,pula,2023-10-08 17:00:00,0
34,22.31,68,1021,clear sky,1696780800,2.57,280,pula,2023-10-08 18:00:00,0
35,20.31,77,1021,clear sky,1696784400,1.03,270,pula,2023-10-08 19:00:00,0
36,19.31,82,1021,clear sky,1696788000,0.0,0,pula,2023-10-08 20:00:00,0
37,18.31,88,1022,clear sky,1696791600,1.54,20,pula,2023-10-08 21:00:00,0
38,18.31,82,1022,clear sky,1696795200,0.51,90,pula,2023-10-08 22:00:00,0
39,17.31,88,1022,clear sky,1696798800,1.54,70,pula,2023-10-08 23:00:00,0
40,16.31,94,1022,clear sky,1696802400,1.03,0,pula,2023-10-09 00:00:00,0
41,16.31,88,1022,broken clouds,1696806000,1.03,0,pula,2023-10-09 01:00:00,0
42,12.31,87,1023,clear sky,1696636800,0.0,0,pula,2023-10-07 02:00:00,0
43,12.31,82,1023,clear sky,1696640400,1.54,30,pula,2023-10-07 03:00:00,0
44,14.31,72,1023,clear sky,1696644000,0.51,0,pula,2023-10-07 04:00:00,0
45,11.31,82,1022,clear sky,1696647600,0.0,0,pula,2023-10-07 05:00:00,0
46,13.31,76,1022,clear sky,1696651200,1.03,40,pula,2023-10-07 06:00:00,0
47,13.31,76,1022,clear sky,1696654800,1.03,30,pula,2023-10-07 07:00:00,0
48,12.31,87,1023,clear sky,1696658400,0.0,0,pula,2023-10-07 08:00:00,0
49,18.31,72,1023,clear sky,1696662000,0.51,80,pula,2023-10-07 09:00:00,0
50,23.31,46,1024,clear sky,1696665600,1.54,290,pula,2023-10-07 10:00:00,0
51,25.31,36,1024,clear sky,1696669200,3.09,290,pula,2023-10-07 11:00:00,0
52,25.31,41,1024,clear sky,1696672800,4.12,260,pula,2023-10-07 12:00:00,0
53,26.31,41,1023,clear sky,1696676400,4.12,270,pula,2023-10-07 13:00:00,0
54,25.31,41,1023,clear sky,1696680000,4.63,280,pula,2023-10-07 14:00:00,0
55,25.31,44,1022,clear sky,1696683600,4.63,280,pula,2023-10-07 15:00:00,0
56,25.31,47,1022,clear sky,1696687200,4.63,260,pula,2023-10-07 16:00:00,0
57,23.31,53,1022,clear sky,1696690800,4.12,280,pula,2023-10-07 17:00:00,0
58,21.31,64,1022,clear sky,1696694400,3.09,270,pula,2023-10-07 18:00:00,0
59,19.31,68,1023,clear sky,1696698000,1.03,0,pula,2023-10-07 19:00:00,0
60,17.31,77,1023,clear sky,1696701600,0.51,0,pula,2023-10-07 20:00:00,0
61,15.31,82,1023,clear sky,1696705200,0.51,0,pula,2023-10-07 21:00:00,0
62,13.31,88,1023,clear sky,1696708800,1.03,0,pula,2023-10-07 22:00:00,0
63,13.31,88,1023,clear sky,1696712400,0.0,0,pula,2023-10-07 23:00:00,0
64,15.31,77,1023,clear sky,1696716000,0.0,0,pula,2023-10-08 00:00:00,0
65,14.31,88,1023,clear sky,1696719600,0.0,0,pula,2023-10-08 01:00:00,0
66,17.31,72,1023,clear sky,1696550400,1.03,0,pula,2023-10-06 02:00:00,0
67,16.31,72,1023,clear sky,1696554000,1.03,0,pula,2023-10-06 03:00:00,0
68,16.31,72,1023,clear sky,1696557600,2.57,20,pula,2023-10-06 04:00:00,0
69,15.31,72,1023,clear sky,1696561200,1.54,40,pula,2023-10-06 05:00:00,0
70,14.31,82,1023,clear sky,1696564800,0.51,0,pula,2023-10-06 06:00:00,0
71,16.31,67,1023,clear sky,1696568400,2.57,40,pula,2023-10-06 07:00:00,0
72,17.31,63,1023,clear sky,1696572000,3.6,50,pula,2023-10-06 08:00:00,0
73,19.31,59,1024,clear sky,1696575600,3.09,50,pula,2023-10-06 09:00:00,0
74,22.31,49,1025,clear sky,1696579200,5.66,70,pula,2023-10-06 10:00:00,0
75,23.31,43,1025,clear sky,1696582800,7.2,80,pula,2023-10-06 11:00:00,0
76,23.31,43,1025,clear sky,1696586400,7.2,80,pula,2023-10-06 12:00:00,0
77,24.31,38,1025,clear sky,1696590000,6.17,80,pula,2023-10-06 13:00:00,0
78,25.31,36,1024,clear sky,1696593600,3.6,80,pula,2023-10-06 14:00:00,0
79,25.31,36,1024,clear sky,1696597200,3.6,120,pula,2023-10-06 15:00:00,0
80,25.31,38,1023,clear sky,1696600800,3.09,100,pula,2023-10-06 16:00:00,0
81,23.31,49,1023,clear sky,1696604400,4.63,290,pula,2023-10-06 17:00:00,0
82,22.31,60,1023,clear sky,1696608000,3.6,290,pula,2023-10-06 18:00:00,0
83,19.31,68,1023,clear sky,1696611600,0.51,0,pula,2023-10-06 19:00:00,0
84,17.31,72,1024,clear sky,1696615200,0.51,0,pula,2023-10-06 20:00:00,0
85,17.31,63,1024,clear sky,1696618800,1.03,0,pula,2023-10-06 21:00:00,0
86,16.31,67,1024,clear sky,1696622400,3.6,20,pula,2023-10-06 22:00:00,0
87,14.31,77,1024,clear sky,1696626000,2.06,20,pula,2023-10-06 23:00:00,0
88,15.31,67,1024,clear sky,1696629600,1.54,70,pula,2023-10-07 00:00:00,0
89,13.31,76,1024,clear sky,1696633200,1.03,0,pula,2023-10-07 01:00:00,0
90,17.31,55,1023,clear sky,1696464000,3.09,60,pula,2023-10-05 02:00:00,0
91,18.31,52,1023,clear sky,1696467600,3.09,60,pula,2023-10-05 03:00:00,0
92,17.31,51,1023,clear sky,1696471200,3.6,40,pula,2023-10-05 04:00:00,0
93,17.31,51,1022,clear sky,1696474800,3.6,40,pula,2023-10-05 05:00:00,0
94,17.31,48,1023,clear sky,1696478400,4.12,50,pula,2023-10-05 06:00:00,0
95,16.31,51,1023,clear sky,1696482000,4.12,40,pula,2023-10-05 07:00:00,0
96,17.31,48,1023,clear sky,1696485600,3.6,30,pula,2023-10-05 08:00:00,0
97,19.31,48,1023,clear sky,1696489200,3.09,20,pula,2023-10-05 09:00:00,0
98,22.31,43,1024,clear sky,1696492800,2.57,40,pula,2023-10-05 10:00:00,0
99,24.31,46,1024,clear sky,1696496400,0.51,0,pula,2023-10-05 11:00:00,0
100,24.31,53,1024,clear sky,1696500000,3.09,280,pula,2023-10-05 12:00:00,0
101,23.31,56,1024,clear sky,1696503600,4.12,300,pula,2023-10-05 13:00:00,0
102,24.31,53,1023,clear sky,1696507200,3.09,270,pula,2023-10-05 14:00:00,0
103,24.31,57,1023,clear sky,1696510800,3.6,260,pula,2023-10-05 15:00:00,0
104,23.31,60,1022,clear sky,1696514400,4.12,270,pula,2023-10-05 16:00:00,0
105,22.31,68,1022,clear sky,1696518000,4.12,270,pula,2023-10-05 17:00:00,0
106,21.31,73,1022,clear sky,1696521600,3.09,280,pula,2023-10-05 18:00:00,0
107,19.31,82,1023,clear sky,1696525200,0.0,0,pula,2023-10-05 19:00:00,0
108,17.31,94,1023,clear sky,1696528800,0.0,0,pula,2023-10-05 20:00:00,0
109,17.31,88,1023,clear sky,1696532400,1.54,50,pula,2023-10-05 21:00:00,0
110,17.31,88,1023,clear sky,1696536000,1.03,0,pula,2023-10-05 22:00:00,0
111,17.31,88,1023,clear sky,1696539600,0.51,0,pula,2023-10-05 23:00:00,0
112,18.31,82,1023,clear sky,1696543200,1.03,60,pula,2023-10-06 00:00:00,0
113,17.31,72,1023,clear sky,1696546800,1.54,50,pula,2023-10-06 01:00:00,0
