,temp,humidity,pressure,description,dt,wind_speed,wind_deg,city,date,distance
0,14.57,67,1022,broken clouds,1696809600,1.79,98,visnjan,2023-10-09 02:00:00,10
1,14.57,68,1022,broken clouds,1696813200,1.86,93,visnjan,2023-10-09 03:00:00,10
2,13.57,72,1022,broken clouds,1696816800,2.14,112,visnjan,2023-10-09 04:00:00,10
3,14.57,73,1022,broken clouds,1696820400,1.87,100,visnjan,2023-10-09 05:00:00,10
4,14.57,75,1022,broken clouds,1696824000,2.02,94,visnjan,2023-10-09 06:00:00,10
5,13.57,76,1022,broken clouds,1696827600,1.98,107,visnjan,2023-10-09 07:00:00,10
6,14.57,75,1022,scattered clouds,1696831200,1.84,114,visnjan,2023-10-09 08:00:00,10
7,16.57,65,1022,broken clouds,1696834800,1.51,139,visnjan,2023-10-09 09:00:00,10
8,20.57,57,1022,broken clouds,1696838400,1.24,173,visnjan,2023-10-09 10:00:00,10
9,21.57,53,1022,broken clouds,1696842000,1.62,204,visnjan,2023-10-09 11:00:00,10
10,22.57,49,1022,overcast clouds,1696845600,2.04,217,visnjan,2023-10-09 12:00:00,10
11,23.57,48,1021,overcast clouds,1696849200,2.47,217,visnjan,2023-10-09 13:00:00,10
12,23.57,49,1020,overcast clouds,1696852800,2.87,221,visnjan,2023-10-09 14:00:00,10
13,23.57,52,1020,broken clouds,1696856400,3.21,212,visnjan,2023-10-09 15:00:00,10
14,24.57,54,1019,overcast clouds,1696860000,3.28,198,visnjan,2023-10-09 16:00:00,10
15,22.57,58,1019,overcast clouds,1696863600,2.5,187,visnjan,2023-10-09 17:00:00,10
16,21.57,69,1019,broken clouds,1696867200,1.69,146,visnjan,2023-10-09 18:00:00,10
17,21.57,75,1019,broken clouds,1696870800,1.95,114,visnjan,2023-10-09 19:00:00,10
18,13.57,64,1023,scattered clouds,1696723200,1.47,12,visnjan,2023-10-08 02:00:00,10
19,12.57,66,1023,scattered clouds,1696726800,1.23,29,visnjan,2023-10-08 03:00:00,10
20,12.57,68,1022,broken clouds,1696730400,1.39,40,visnjan,2023-10-08 04:00:00,10
21,12.57,71,1022,scattered clouds,1696734000,1.64,35,visnjan,2023-10-08 05:00:00,10
22,11.57,73,1022,scattered clouds,1696737600,1.19,30,visnjan,2023-10-08 06:00:00,10
23,11.57,74,1023,scattered clouds,1696741200,1.78,31,visnjan,2023-10-08 07:00:00,10
24,12.57,72,1023,broken clouds,1696744800,1.44,48,visnjan,2023-10-08 08:00:00,10
25,15.57,63,1023,overcast clouds,1696748400,1.09,14,visnjan,2023-10-08 09:00:00,10
26,20.57,57,1023,overcast clouds,1696752000,1.34,321,visnjan,2023-10-08 10:00:00,10
27,22.57,54,1023,overcast clouds,1696755600,2.0,307,visnjan,2023-10-08 11:00:00,10
28,22.57,52,1023,overcast clouds,1696759200,2.24,295,visnjan,2023-10-08 12:00:00,10
29,22.57,50,1022,overcast clouds,1696762800,2.23,291,visnjan,2023-10-08 13:00:00,10
30,22.57,50,1022,broken clouds,1696766400,2.27,281,visnjan,2023-10-08 14:00:00,10
31,22.57,51,1022,overcast clouds,1696770000,2.15,284,visnjan,2023-10-08 15:00:00,10
32,22.57,52,1021,overcast clouds,1696773600,1.44,272,visnjan,2023-10-08 16:00:00,10
33,21.57,57,1021,overcast clouds,1696777200,0.87,240,visnjan,2023-10-08 17:00:00,10
34,20.57,67,1021,overcast clouds,1696780800,0.75,258,visnjan,2023-10-08 18:00:00,10
35,18.57,73,1022,overcast clouds,1696784400,1.14,34,visnjan,2023-10-08 19:00:00,10
36,17.57,74,1022,scattered clouds,1696788000,1.32,71,visnjan,2023-10-08 20:00:00,10
37,16.57,74,1022,broken clouds,1696791600,1.59,80,visnjan,2023-10-08 21:00:00,10
38,16.57,73,1022,broken clouds,1696795200,1.4,73,visnjan,2023-10-08 22:00:00,10
39,15.57,72,1022,overcast clouds,1696798800,1.3,81,visnjan,2023-10-08 23:00:00,10
40,14.57,71,1022,broken clouds,1696802400,1.37,82,visnjan,2023-10-09 00:00:00,10
41,14.57,70,1022,broken clouds,1696806000,1.46,77,visnjan,2023-10-09 01:00:00,10
42,11.57,72,1024,clear sky,1696636800,1.5,62,visnjan,2023-10-07 02:00:00,10
43,11.57,70,1024,few clouds,1696640400,1.53,56,visnjan,2023-10-07 03:00:00,10
44,10.57,68,1023,few clouds,1696644000,1.68,50,visnjan,2023-10-07 04:00:00,10
45,10.57,66,1023,few clouds,1696647600,1.65,54,visnjan,2023-10-07 05:00:00,10
46,10.57,63,1023,few clouds,1696651200,1.68,51,visnjan,2023-10-07 06:00:00,10
47,10.57,61,1023,few clouds,1696654800,1.52,54,visnjan,2023-10-07 07:00:00,10
48,10.57,57,1023,clear sky,1696658400,1.44,48,visnjan,2023-10-07 08:00:00,10
49,13.57,51,1023,few clouds,1696662000,1.15,26,visnjan,2023-10-07 09:00:00,10
50,17.57,46,1024,few clouds,1696665600,1.45,342,visnjan,2023-10-07 10:00:00,10
51,21.57,44,1024,few clouds,1696669200,2.1,321,visnjan,2023-10-07 11:00:00,10
52,20.57,43,1024,few clouds,1696672800,2.41,311,visnjan,2023-10-07 12:00:00,10
53,21.57,41,1023,few clouds,1696676400,2.52,301,visnjan,2023-10-07 13:00:00,10
54,22.57,42,1023,clear sky,1696680000,2.8,293,visnjan,2023-10-07 14:00:00,10
55,22.57,44,1022,clear sky,1696683600,2.83,294,visnjan,2023-10-07 15:00:00,10
56,22.57,45,1022,clear sky,1696687200,2.5,302,visnjan,2023-10-07 16:00:00,10
57,22.57,49,1022,clear sky,1696690800,2.02,309,visnjan,2023-10-07 17:00:00,10
58,20.57,60,1022,clear sky,1696694400,1.3,308,visnjan,2023-10-07 18:00:00,10
59,15.57,65,1023,clear sky,1696698000,0.81,359,visnjan,2023-10-07 19:00:00,10
60,14.57,66,1023,scattered clouds,1696701600,1.25,33,visnjan,2023-10-07 20:00:00,10
61,16.31,65,1023,broken clouds,1696705200,1.32,48,visnjan,2023-10-07 21:00:00,10
62,14.57,63,1023,broken clouds,1696708800,1.37,51,visnjan,2023-10-07 22:00:00,10
63,14.57,62,1024,broken clouds,1696712400,1.48,41,visnjan,2023-10-07 23:00:00,10
64,14.57,61,1023,broken clouds,1696716000,1.21,47,visnjan,2023-10-08 00:00:00,10
65,13.57,59,1023,broken clouds,1696719600,1.15,30,visnjan,2023-10-08 01:00:00,10
66,14.57,68,1024,overcast clouds,1696550400,1.44,57,visnjan,2023-10-06 02:00:00,10
67,13.57,70,1023,overcast clouds,1696554000,1.49,62,visnjan,2023-10-06 03:00:00,10
68,12.57,70,1023,overcast clouds,1696557600,1.51,70,visnjan,2023-10-06 04:00:00,10
69,12.57,72,1023,broken clouds,1696561200,1.59,61,visnjan,2023-10-06 05:00:00,10
70,12.57,72,1023,broken clouds,1696564800,1.89,63,visnjan,2023-10-06 06:00:00,10
71,12.57,72,1023,broken clouds,1696568400,2.03,67,visnjan,2023-10-06 07:00:00,10
72,12.57,70,1024,clear sky,1696572000,2.01,75,visnjan,2023-10-06 08:00:00,10
73,14.57,61,1024,clear sky,1696575600,1.86,86,visnjan,2023-10-06 09:00:00,10
74,19.57,52,1025,clear sky,1696579200,1.53,101,visnjan,2023-10-06 10:00:00,10
75,20.57,45,1025,clear sky,1696582800,0.56,99,visnjan,2023-10-06 11:00:00,10
76,21.57,43,1025,clear sky,1696586400,0.9,321,visnjan,2023-10-06 12:00:00,10
77,23.57,42,1025,clear sky,1696590000,1.77,304,visnjan,2023-10-06 13:00:00,10
78,23.57,42,1024,clear sky,1696593600,2.33,298,visnjan,2023-10-06 14:00:00,10
79,24.57,44,1024,clear sky,1696597200,2.66,300,visnjan,2023-10-06 15:00:00,10
80,23.57,47,1024,clear sky,1696600800,2.82,297,visnjan,2023-10-06 16:00:00,10
81,22.57,54,1024,clear sky,1696604400,2.63,294,visnjan,2023-10-06 17:00:00,10
82,21.57,65,1024,clear sky,1696608000,1.41,284,visnjan,2023-10-06 18:00:00,10
83,18.57,71,1024,few clouds,1696611600,0.45,291,visnjan,2023-10-06 19:00:00,10
84,15.57,72,1024,few clouds,1696615200,0.73,87,visnjan,2023-10-06 20:00:00,10
85,14.57,73,1025,few clouds,1696618800,1.08,83,visnjan,2023-10-06 21:00:00,10
86,13.57,73,1025,few clouds,1696622400,1.33,79,visnjan,2023-10-06 22:00:00,10
87,12.57,73,1025,few clouds,1696626000,1.45,73,visnjan,2023-10-06 23:00:00,10
88,12.57,72,1024,clear sky,1696629600,1.56,73,visnjan,2023-10-07 00:00:00,10
89,11.57,72,1024,few clouds,1696633200,1.5,66,visnjan,2023-10-07 01:00:00,10
90,13.57,63,1024,overcast clouds,1696464000,1.67,54,visnjan,2023-10-05 02:00:00,10
91,12.57,64,1024,overcast clouds,1696467600,1.55,67,visnjan,2023-10-05 03:00:00,10
92,11.57,67,1023,broken clouds,1696471200,1.66,65,visnjan,2023-10-05 04:00:00,10
93,12.57,68,1023,broken clouds,1696474800,1.88,82,visnjan,2023-10-05 05:00:00,10
94,10.57,68,1023,scattered clouds,1696478400,2.0,70,visnjan,2023-10-05 06:00:00,10
95,10.57,68,1023,scattered clouds,1696482000,2.03,73,visnjan,2023-10-05 07:00:00,10
96,11.57,66,1024,overcast clouds,1696485600,2.21,72,visnjan,2023-10-05 08:00:00,10
97,14.57,56,1024,broken clouds,1696489200,1.79,81,visnjan,2023-10-05 09:00:00,10
98,17.57,49,1024,overcast clouds,1696492800,1.11,58,visnjan,2023-10-05 10:00:00,10
99,20.57,46,1024,overcast clouds,1696496400,0.92,68,visnjan,2023-10-05 11:00:00,10
100,21.57,43,1024,overcast clouds,1696500000,0.4,324,visnjan,2023-10-05 12:00:00,10
101,22.57,42,1024,broken clouds,1696503600,0.92,290,visnjan,2023-10-05 13:00:00,10
102,22.57,43,1023,overcast clouds,1696507200,1.6,284,visnjan,2023-10-05 14:00:00,10
103,21.57,44,1023,overcast clouds,1696510800,2.27,281,visnjan,2023-10-05 15:00:00,10
104,21.57,47,1023,overcast clouds,1696514400,2.58,288,visnjan,2023-10-05 16:00:00,10
105,21.57,52,1023,overcast clouds,1696518000,2.26,295,visnjan,2023-10-05 17:00:00,10
106,21.57,61,1022,overcast clouds,1696521600,0.99,300,visnjan,2023-10-05 18:00:00,10
107,17.57,63,1023,overcast clouds,1696525200,0.54,37,visnjan,2023-10-05 19:00:00,10
108,15.57,62,1023,overcast clouds,1696528800,0.86,65,visnjan,2023-10-05 20:00:00,10
109,14.57,62,1023,overcast clouds,1696532400,0.94,69,visnjan,2023-10-05 21:00:00,10
110,14.57,62,1023,overcast clouds,1696536000,1.05,66,visnjan,2023-10-05 22:00:00,10
111,14.57,62,1023,overcast clouds,1696539600,1.31,69,visnjan,2023-10-05 23:00:00,10
112,14.57,64,1023,overcast clouds,1696543200,1.45,47,visnjan,2023-10-06 00:00:00,10
113,13.57,66,1023,overcast clouds,1696546800,1.42,57,visnjan,2023-10-06 01:00:00,10
